{
    "questionTitle": "How to make a website as fast as possible?",
    "questionAuthor": "Andrea",
    "questionDate": "23.11.2018",
    "answerAuthor": "Zdenka",
    "answerDate": "25.11.2018",
    "answerText": "The best way to do that is to watch youtube videos, but remember to always know exactly what your page is going to look like."
}